<?xml version="1.0" encoding="utf-8"?>
<!-- Generator: Adobe Illustrator 24.0.2, SVG Export Plug-In . SVG Version: 6.00 Build 0)  -->
<svg version="1.1" id="Capa_1" xmlns="http://www.w3.org/2000/svg" xmlns:xlink="http://www.w3.org/1999/xlink" x="0px" y="0px"
	 viewBox="0 0 512 506.5" style="enable-background:new 0 0 512 506.5;" xml:space="preserve">
<style type="text/css">
	.st0{fill:#FE5607;}
</style>
<g id="XMLID_454_">
	<path id="XMLID_1332_" class="st0" d="M256,153L132.7,366.6h246.7L256,153z M256,213.1l71.3,123.4H184.7L256,213.1z"/>
	<path id="XMLID_1346_" class="st0" d="M445,443.4h67L256,0L0,443.4h67l-15.7,33.1H21.4v30.1H113v-30.1H84.5l15.7-33.1h311.5
		l15.7,33.1h-28v30.1h91.5v-30.1h-30.3L445,443.4z M256,60.1l203.9,353.2H52.1L256,60.1z"/>
</g>
</svg>
